Abbildungen II | EDV1
…
keine Übung

Puffer

Probeklausur

Gruppierte Darstellungen

Balkendiagramme

Bei dem Versuch zwei kategoriale mit einer numerischen zu kombinieren oder kombinierte Häufigkeiten von zwei Gruppierungsfaktoren darzustellen kommen wir mit den bisher benutzten aesthetics nicht unbedingt weiter.

Als Beispiel betrachten wir folgenden Ausschnitt des hier verfügbaren Datensatz:

## # A tibble: 21 x 3
##    sex   age       DE
##    <chr> <chr>  <dbl>
##  1 F     Y15-19  82.7
##  2 F     Y20-24  73.4
##  3 F     Y25-29  73.2
##  4 F     Y30-44  76.9
##  5 F     Y45-54  74  
##  6 F     Y55-64  81.7
##  7 F     Y65-74  91.1
##  8 M     Y15-19  81.4
##  9 M     Y20-24  68.7
## 10 M     Y25-29  65.1
## # … with 11 more rows
…
Boxplots

Wenn wir den Datensatz ein bisschen anders aufbereiten, können wir die Verteilungen der Raucher-Anteile über Europa darstellen.

## # A tibble: 651 x 4
##    sex   age    country percentage
##    <chr> <chr>  <chr>        <dbl>
##  1 F     Y15-19 BE            76.6
##  2 F     Y15-19 BG            83.2
##  3 F     Y15-19 CZ            83.5
##  4 F     Y15-19 DK            82.1
##  5 F     Y15-19 DE            82.7
##  6 F     Y15-19 EE            91.2
##  7 F     Y15-19 IE            86.3
##  8 F     Y15-19 EL            87.7
##  9 F     Y15-19 ES            89.8
## 10 F     Y15-19 FR            80.8
## # … with 641 more rows
…
Wir können auch komplexere Informationen nachträglich hinzufügen, so zum Beispiel wenn wir die jeweiligen Mittelwerte als Punkte und die SEMs als Fehlerbalken hinzufügen. Wir fangen wieder damit an, einen Datensatz zu erstellen:

mean_sem_per_box <- df %>% 
  group_by(sex, age) %>% 
  summarise(sem = sqrt(var(percentage,na.rm = T) / length(percentage)),
            percentage = mean(percentage,na.rm = T),
            upper = percentage + sem,
            lower = percentage - sem)
mean_sem_per_box

## # A tibble: 21 x 6
## # Groups:   sex [3]
##    sex   age      sem percentage upper lower
##    <chr> <chr>  <dbl>      <dbl> <dbl> <dbl>
##  1 F     Y15-19 1.04        85.8  86.8  84.7
##  2 F     Y20-24 1.16        74.2  75.4  73.1
##  3 F     Y25-29 1.07        73.7  74.7  72.6
##  4 F     Y30-44 1.27        74.7  75.9  73.4
##  5 F     Y45-54 1.22        74.8  76.0  73.6
##  6 F     Y55-64 0.952       79.7  80.7  78.7
##  7 F     Y65-74 0.678       89.8  90.4  89.1
##  8 M     Y15-19 1.03        80.8  81.9  79.8
##  9 M     Y20-24 1.53        62.8  64.3  61.3
## 10 M     Y25-29 1.75        59.3  61.0  57.5
## # … with 11 more rows
…
Zusätzliche tweaks

Sortieren von labels

Wir gucken uns den folgenden, von dieser website bezogenen Datensatz an, die die Produktion grüner Kaffeebohnen pro Land in hg/ha beinhaltet:

coffee_df <- read_csv('data/coffee_data.csv') 
coffee_df

## # A tibble: 77 x 4
##    Area                              Year Unit  Value
##    <chr>                            <dbl> <chr> <dbl>
##  1 Angola                            2019 hg/ha  3073
##  2 Belize                            2019 hg/ha  7273
##  3 Benin                             2019 hg/ha  1900
##  4 Bolivia (Plurinational State of)  2019 hg/ha  9742
##  5 Brazil                            2019 hg/ha 16504
##  6 Burundi                           2019 hg/ha  9136
##  7 Cambodia                          2019 hg/ha  8000
##  8 Cameroon                          2019 hg/ha  3121
##  9 Central African Republic          2019 hg/ha  2075
## 10 China                             2019 hg/ha 30298
## # … with 67 more rows
…
