Abbildungen I | EDV1
…
Um den Datensatz richtig darstellen zu können, müssen wir nun alle Werte, die auf einer Dimension dargestellt werden, in eine Variable pivotieren. Wir wollen als erstes die Anzahl der einzelnen Haushalte in einer Grafik darstellen, pivotieren den Datensatz also so, dass alle Haushalts-Spalten in einer Spalte landen. Dafür nutzen wir die pivot_longer-Funktion:

df_long <- df %>% 
  pivot_longer(cols = all_of(c("Einpersonen", 
                               "Paar ohne Kind", 
                               "Paar mit Kindern", 
                               "Paar mit Nachkommen",
                               "Alleinerziehende", 
                               "Sonst. Mehrpersonenhaushalte")),
               names_to = 'Haushaltsform',
               values_to = 'Anzahl')
df_long

## # A tibble: 180 x 8
##    Land  Stadt Kategorie Merkmal           Stadtteil
##    <chr> <chr> <chr>     <chr>             <chr>    
##  1 de-sh Kiel  geo       Flächen in Hektar Altstadt 
##  2 de-sh Kiel  geo       Flächen in Hektar Altstadt 
##  3 de-sh Kiel  geo       Flächen in Hektar Altstadt 
##  4 de-sh Kiel  geo       Flächen in Hektar Altstadt 
##  5 de-sh Kiel  geo       Flächen in Hektar Altstadt 
##  6 de-sh Kiel  geo       Flächen in Hektar Altstadt 
##  7 de-sh Kiel  geo       Flächen in Hektar Vorstadt 
##  8 de-sh Kiel  geo       Flächen in Hektar Vorstadt 
##  9 de-sh Kiel  geo       Flächen in Hektar Vorstadt 
## 10 de-sh Kiel  geo       Flächen in Hektar Vorstadt 
##    Hektar Haushaltsform                Anzahl
##     <dbl> <chr>                         <dbl>
##  1   35.1 Einpersonen                     384
##  2   35.1 Paar ohne Kind                  305
##  3   35.1 Paar mit Kindern                165
##  4   35.1 Paar mit Nachkommen              29
##  5   35.1 Alleinerziehende                 28
##  6   35.1 Sonst. Mehrpersonenhaushalte    118
##  7   45.9 Einpersonen                     657
##  8   45.9 Paar ohne Kind                  303
##  9   45.9 Paar mit Kindern                167
## 10   45.9 Paar mit Nachkommen              13
## # … with 170 more rows
…
