5 tidyverse und tibbles | EDV1
…
tibble(x = 1, 
       y = 1:3, 
       z = '10')

## # A tibble: 3 x 3
##       x     y z    
##   <dbl> <int> <chr>
## 1     1     1 10   
## 2     1     2 10   
## 3     1     3 10

tibble(iris)

## # A tibble: 150 x 5
##    Sepal.Length Sepal.Width Petal.Length Petal.Width
##           <dbl>       <dbl>        <dbl>       <dbl>
##  1          5.1         3.5          1.4         0.2
##  2          4.9         3            1.4         0.2
##  3          4.7         3.2          1.3         0.2
##  4          4.6         3.1          1.5         0.2
##  5          5           3.6          1.4         0.2
##  6          5.4         3.9          1.7         0.4
##  7          4.6         3.4          1.4         0.3
##  8          5           3.4          1.5         0.2
##  9          4.4         2.9          1.4         0.2
## 10          4.9         3.1          1.5         0.1
## # … with 140 more rows, and 1 more variable:
## #   Species <fct>
…
